…
  homicide_df %>% 
  nest(data = -city_state) %>% 
  mutate(models = map(.x = data, ~glm(resolved ~ victim_age + victim_race + victim_sex, data = .x, family = binomial())), 
         results = map(models, broom::tidy)) %>% 
  select(city_state, results) %>% 
  unnest(results) %>% 
  mutate(
    OR = exp(estimate), 
    CI_lower = exp(estimate - 1.96*std.error), 
    CI_upper = exp(estimate + 1.96*std.error)) %>% 
  select(city_state, term, OR, starts_with("CI")) %>% 
  print()
```

    ## # A tibble: 188 x 5
    ##    city_state     term                OR CI_lower CI_upper
    ##    <chr>          <chr>            <dbl>    <dbl>    <dbl>
    ##  1 Albuquerque_NM (Intercept)      1.84     0.534    6.37 
    ##  2 Albuquerque_NM victim_age       0.981    0.963    0.998
    ##  3 Albuquerque_NM victim_raceWhite 1.51     0.668    3.41 
    ##  4 Albuquerque_NM victim_sexMale   1.77     0.831    3.76 
    ##  5 Atlanta_GA     (Intercept)      2.39     1.49     3.83 
    ##  6 Atlanta_GA     victim_age       0.988    0.979    0.997
    ##  7 Atlanta_GA     victim_raceWhite 1.31     0.749    2.28 
    ##  8 Atlanta_GA     victim_sexMale   1.00     0.684    1.46 
    ##  9 Baltimore_MD   (Intercept)      1.36     0.975    1.91 
    ## 10 Baltimore_MD   victim_age       0.993    0.987    1.00 
    ## # ... with 178 more rows
…
